/home/vietnam/Desktop/MyProject/transaction_service/src/main/java/com/TietKiem/transaction_service/TransactionServiceApplication.java
/home/vietnam/Desktop/MyProject/transaction_service/src/main/java/com/TietKiem/transaction_service/service/TransactionService.java
/home/vietnam/Desktop/MyProject/transaction_service/src/main/java/com/TietKiem/transaction_service/model/TransactionModel.java
/home/vietnam/Desktop/MyProject/transaction_service/src/main/java/com/TietKiem/transaction_service/controller/TransactionController.java
/home/vietnam/Desktop/MyProject/transaction_service/src/main/java/com/TietKiem/transaction_service/repository/TransactionRepository.java
